Chapter 7 Conclusion | Project
…
In this plot we have compared the average weight and average height for athletes in 2016 Olympics in Gymnastics and Basketball. Also, Athletes who play Basketball are taller and heavier than who do Gymnastics.

17-year-old Brazilian gymnast Flavia Saraiva, is the lightest athletes at only 31kg (68 lbs) and she was also the shortest. Also, Basketball players are very tall and heavy.

## # A tibble: 1,400 × 6
## # Groups:   Sport [56]
##      Sex   Age Height Weight  Year Sport        
##    <dbl> <int>  <dbl>  <dbl> <int> <chr>        
##  1     0    23    169     58  1976 Alpine Skiing
##  2     1    30    179     84  1992 Alpine Skiing
##  3     1    19    183     87  1968 Alpine Skiing
##  4     0    26    180     70  1994 Alpine Skiing
##  5     1    19    184     76  1960 Alpine Skiing
##  6     0    18    175     73  1998 Alpine Skiing
##  7     0    28    170     81  2010 Alpine Skiing
##  8     1    27    186     88  2006 Alpine Skiing
##  9     1    30    179     84  1992 Alpine Skiing
## 10     1    23    180     74  2010 Alpine Skiing
## # … with 1,390 more rows

## # A tibble: 1,400 × 4
##      Sex   Age Height Weight
##    <dbl> <int>  <dbl>  <dbl>
##  1     0    23    169     58
##  2     1    30    179     84
##  3     1    19    183     87
##  4     0    26    180     70
##  5     1    19    184     76
##  6     0    18    175     73
##  7     0    28    170     81
##  8     1    27    186     88
##  9     1    30    179     84
## 10     1    23    180     74
## # … with 1,390 more rows
…
